{
    "frank": {
        "username": "frank",
        "name": "Frank Sinatra",
        "bio": "Singer",
        "password": "Design_20"
    },
    "jobim": {
        "username": "jobim",
        "name": "Antonio Carlos Jobim",
        "bio": "Composer",
        "password": "Design_20"
    },
    "fred": {
        "username": "fred",
        "name": "Fred Astaire",
        "bio": "Dancer and Actor",
        "password": "Design_20"
    }
}